{
    "tagSettings": {
        "propertyTags": ["givenName", "familyName", "spouse"]
    },
    "converterSettings": {
        "vocabMap": {
            "givenName": "schema:givenName",
            "familyName": "schema:familyName",
            "spouse": "schema:spouse",
            "description": "schema:description"
        }
    }
}